{"componentChunkName":"component---src-templates-index-jsx","path":"/4","result":{"data":{"authors":{"edges":[{"node":{"uid":"casper","name":"Ahmed B.","image":"/logo.png","url":"http://devtoweb.be/","bio":" Les programmes doivent être faits pour être lus par des gens, et occasionnellement pour être exécutés par des machines. - Hal Abelson "}},{"node":{"uid":"guinevere","name":"Guinevere Kuiper","image":"https://randomuser.me/api/portraits/women/17.jpg","url":"https://randomuser.me/api/?seed=user1","bio":"Lorem ipsum dolor sit amet, consectetur adipiscing elit. Nullam laoreet lorem nec ligula aliquet, porta blandit augue luctus. Vivamus ac quam diam. Sed vestibulum pharetra hendrerit."}}]}},"pageContext":{"nodes":[{"node":{"frontmatter":{"title":"Random project 4 With Super Long Title Phase One","tags":["say hi"],"cover":"https://unsplash.it/1280/300/?random?SuperLong","date":"2017-02-03","category":"random","author":null},"fields":{"slug":"/random-project-4-with-super-long-title-phase-one"},"excerpt":"Artificem honorati ore temperat Lycus quam antiquum Mendaci pinu ipsi nunc Lorem markdownum supplex. Care ferre nos praemia detestatur…","timeToRead":2}},{"node":{"frontmatter":{"title":"Angels of Mist","tags":["cheese","other"],"cover":"https://unsplash.it/1280/900/?random?AngelsofMist","date":"2017-01-03","category":"test3","author":null},"fields":{"slug":"/angels-of-mist"},"excerpt":"Ab dicemur cura Mane oscula anxia Lorem markdownum alius, non voluntas supremaque: canes ager cingere quis;\nrerum? Nunc nec ferunt verbis…","timeToRead":2}},{"node":{"frontmatter":{"title":"The Fallen Time","tags":["test","something","tagging"],"cover":"https://unsplash.it/1280/900/?random?TheFallenTime","date":"2017-01-02","category":"another one","author":null},"fields":{"slug":"/the-fallen-time"},"excerpt":"Autolyci eminus retenta Hoc domum solitos veteremque nostrum Lorem markdownum huc suo ara, dubites celeri mihi bicolor. Secuti non? Suo opus…","timeToRead":2}},{"node":{"frontmatter":{"title":"Bienvenue sur mon blog","tags":["presentation"],"cover":"/images/hidden-beach-between-mountains-in-north-norway-picjumbo-com.jpg","date":"2017-01-01","category":"tech","author":"Ahmed"},"fields":{"slug":"/bienvenue-sur-mon-blog"},"excerpt":"Quanto et ius coniunctis urbes Sedisti civiliter Lorem markdownum Ixione palus semper peritura barbaque in aureus\nobliquum erigitur gemmae…","timeToRead":2}}],"page":4,"pages":4,"total":19,"limit":5,"prev":"/3"}},"staticQueryHashes":[]}