{"componentChunkName":"component---src-templates-index-jsx","path":"/","result":{"data":{"authors":{"edges":[{"node":{"uid":"casper","name":"Ahmed B.","image":"/logo.png","url":"http://devtoweb.be/","bio":" Les programmes doivent être faits pour être lus par des gens, et occasionnellement pour être exécutés par des machines. - Hal Abelson "}},{"node":{"uid":"guinevere","name":"Guinevere Kuiper","image":"https://randomuser.me/api/portraits/women/17.jpg","url":"https://randomuser.me/api/?seed=user1","bio":"Lorem ipsum dolor sit amet, consectetur adipiscing elit. Nullam laoreet lorem nec ligula aliquet, porta blandit augue luctus. Vivamus ac quam diam. Sed vestibulum pharetra hendrerit."}}]}},"pageContext":{"nodes":[{"node":{"frontmatter":{"title":"Facebook  5 conseils pour booster votre page professionnelle","tags":null,"cover":"images/posts/postblog_5_conseils_pour_booster_votre_page_professionnelle_0307.png","date":"2019-03-7","category":null,"author":null},"fields":{"slug":"/facebook-5-conseils-pour-booster-votre-page-professionnelle"},"excerpt":"Avec plus   de 2,30 milliards d’utilisateurs mensuels, Facebook est devenu une vraie vitrine pour de nombreuses entreprises. Que ce soit…","timeToRead":2}},{"node":{"frontmatter":{"title":"5 conseils pour augmenter son efficacité professionnelle","tags":null,"cover":"images/posts/postblog_5_conseils_pour_augmenter_son_efficacite_professionnelle_0418.png","date":"2018-04-12","category":null,"author":null},"fields":{"slug":"/5-conseils-pour-augmenter-son-efficacite-professionnelle"},"excerpt":"1. Définissez des objectifs journaliers Sans un objectif clair sur ce que vous voulez accomplir, une tâche peut prendre tout le temps…","timeToRead":1}},{"node":{"frontmatter":{"title":"Coworking : top 5 des avantages","tags":null,"cover":"images/posts/postblog_coworking_0218.png","date":"2018-02-24","category":null,"author":null},"fields":{"slug":"/coworking-top-5-des-avantages"},"excerpt":"Le coworking est une solution idéale et à bas prix pour les travailleurs freelances, les employés en déplacement, ou encore les personnes…","timeToRead":2}},{"node":{"frontmatter":{"title":"Les 5 plugins jQuery les plus intéressants pour le développement web","tags":null,"cover":"images/posts/postblog_les_5_plugins_jquery_les_plus_interessants_pour_le_developpement_web_1117.png","date":"2017-11-22","category":null,"author":null},"fields":{"slug":"/les-5-plugins-j-query-les-plus-interessants-pour-le-developpement-web"},"excerpt":"1. Email-autocomplete Un plugin jquery qui suggère et complète automatiquement le nom de domaines de messagerie pendant qu'un utilisateur…","timeToRead":1}},{"node":{"frontmatter":{"title":"Comment devenir un bon développeur","tags":null,"cover":"images/posts/postblog_COMMENT_DEVENIR_UN_BON_DEVELOPLER_0817.png","date":"2017-08-01","category":null,"author":null},"fields":{"slug":"/comment-devenir-un-bon-developpeur"},"excerpt":"Un bon développeur c'est quelqu'un de performant, de travailleur et qui est capable d'évoluer vers le e-learning (c'est à dire se tenir…","timeToRead":2}}],"page":1,"pages":3,"total":12,"limit":5,"next":"/2"}},"staticQueryHashes":[]}