{"data":{"authors":{"edges":[{"node":{"uid":"casper","name":"Ahmed B.","image":"/logo.png","url":"http://devtoweb.be/","bio":" Les programmes doivent être faits pour être lus par des gens, et occasionnellement pour être exécutés par des machines. - Hal Abelson "}},{"node":{"uid":"guinevere","name":"Ahmeed B.","image":"","url":"/","bio":" Les programmes doivent être faits pour être lus par des gens, et occasionnellement pour être exécutés par des machines. - Hal Abelson "}}]}},"pageContext":{"nodes":[{"node":{"frontmatter":{"title":"Les principales nouveautés du PHP 7","tags":null,"cover":"images/posts/postblog_LES_PRINCIPALES_NOUVEAUTES_DU_PHP7_0817.png","date":"2017-07-21","category":null,"author":null},"fields":{"slug":"/les-principales-nouveautes-du-php-7"},"excerpt":"Ceci n'est pas un article approfondi sur les nouvelles fonctionnalités de PHP 7.X, j'en aborde seulement celles qui me semblent intéressant…","timeToRead":1}},{"node":{"frontmatter":{"title":"Swiftmailer","tags":null,"cover":"images/posts/postblog_Swiftmailer_1217.png","date":"2017-07-21","category":null,"author":null},"fields":{"slug":"/swiftmailer"},"excerpt":"Débutons par jeter un coup d'œil général sur ce qu'est Swift Mailer et ces fonctionnalités qu’il embarque avec lui. C'est un programme…","timeToRead":2}},{"node":{"frontmatter":{"title":"Les nouveautés HTML 5.1","tags":null,"cover":"images/posts/postblog_LES_NOUVEAUTES_DU_HTML_0717.png","date":"2017-07-07","category":null,"author":null},"fields":{"slug":"/les-nouveautes-html-5-1"},"excerpt":"Le W3C (World Wide Web Consortium) c’est une communauté internationale qui développe des standards pour l'évolution du Web à officialisé le…","timeToRead":2}},{"node":{"frontmatter":{"title":"Laravel","tags":null,"cover":"images/posts/postblog_LARAVEL_0317.png","date":"2017-03-09","category":null,"author":null},"fields":{"slug":"/laravel"},"excerpt":"Taylor Otwell a créé le framework Laravel en avril 2011, c'est un outil supporté par une très large communauté. Il évolue régulièrement et…","timeToRead":1}},{"node":{"frontmatter":{"title":"Pourquoi utiliser un framework PHP ?","tags":null,"cover":"images/posts/postblog_POURQUOI_UTILISER_UN_FRAMEWORK_PHP_0217.png","date":"2017-02-27","category":null,"author":null},"fields":{"slug":"/pourquoi-utiliser-un-framework-php"},"excerpt":"Aujourd'hui je voulais vous parler des frameworks PHP et la raison du choix de l'utilisation d'un framework ou non. Un framework est un…","timeToRead":1}}],"page":2,"pages":3,"total":12,"limit":5,"prev":"/","next":"/3"}}