{"data":{"authors":{"edges":[{"node":{"uid":"casper","name":"Ahmed B.","image":"/logo.png","url":"http://devtoweb.be/","bio":" Les programmes doivent être faits pour être lus par des gens, et occasionnellement pour être exécutés par des machines. - Hal Abelson "}},{"node":{"uid":"guinevere","name":"Guinevere Kuiper","image":"https://randomuser.me/api/portraits/women/17.jpg","url":"https://randomuser.me/api/?seed=user1","bio":"Lorem ipsum dolor sit amet, consectetur adipiscing elit. Nullam laoreet lorem nec ligula aliquet, porta blandit augue luctus. Vivamus ac quam diam. Sed vestibulum pharetra hendrerit."}}]}},"pageContext":{"nodes":[{"node":{"frontmatter":{"title":"Les tops outils pour un développeur","tags":null,"cover":"images/posts/postblog_TOP_OUTILES_POUR_UN_DEV_0217.png","date":"2017-02-17","category":null,"author":null},"fields":{"slug":"/les-tops-outils-pour-un-developpeur"},"excerpt":"Vous trouverez ci-dessous une liste de logiciels avec lesquels je développe un site ou une application mobile. Pour coder J'utilise Komodo…","timeToRead":2}},{"node":{"frontmatter":{"title":"Bienvenue sur mon blog","tags":["presentation"],"cover":"/images/hidden-beach-between-mountains-in-north-norway-picjumbo-com.jpg","date":"2017-01-01","category":"tech","author":"Ahmed"},"fields":{"slug":"/bienvenue-sur-mon-blog"},"excerpt":"Quanto et ius coniunctis urbes Sedisti civiliter Lorem markdownum Ixione palus semper peritura barbaque in aureus\nobliquum erigitur gemmae…","timeToRead":2}}],"page":3,"pages":3,"total":12,"limit":5,"prev":"/2"}}